<?xml version="1.0" encoding="iso-8859-1"?>
<!-- Generator: Adobe Illustrator 19.0.0, SVG Export Plug-In . SVG Version: 6.00 Build 0)  -->
<svg version="1.1" id="Capa_1" xmlns="http://www.w3.org/2000/svg" xmlns:xlink="http://www.w3.org/1999/xlink" x="0px" y="0px"
	 viewBox="0 0 490.667 490.667" style="enable-background:new 0 0 490.667 490.667;" xml:space="preserve">
<path style="fill:#CFD8DC;" d="M437.333,74.667h-96v-32c0-5.891-4.776-10.667-10.667-10.667H160
	c-5.891,0-10.667,4.776-10.667,10.667v32h-96c-5.891,0-10.667,4.776-10.667,10.667v320c0,5.891,4.776,10.667,10.667,10.667h384
	c5.891,0,10.667-4.776,10.667-10.667v-320C448,79.442,443.224,74.667,437.333,74.667z"/>
<path style="fill:#FAFAFA;" d="M202.667,245.333H288c5.891,0,10.667,4.776,10.667,10.667v149.333
	c0,5.891-4.776,10.667-10.667,10.667h-85.333c-5.891,0-10.667-4.776-10.667-10.667V256C192,250.109,196.776,245.333,202.667,245.333
	z"/>
<g>
	<path style="fill:#64B5F6;" d="M330.667,245.333h64c5.891,0,10.667,4.776,10.667,10.667v64c0,5.891-4.776,10.667-10.667,10.667h-64
		c-5.891,0-10.667-4.776-10.667-10.667v-64C320,250.109,324.776,245.333,330.667,245.333z"/>
	<path style="fill:#64B5F6;" d="M96,245.333h64c5.891,0,10.667,4.776,10.667,10.667v64c0,5.891-4.776,10.667-10.667,10.667H96
		c-5.891,0-10.667-4.776-10.667-10.667v-64C85.333,250.109,90.109,245.333,96,245.333z"/>
	<path style="fill:#64B5F6;" d="M330.667,117.333h64c5.891,0,10.667,4.776,10.667,10.667v64c0,5.891-4.776,10.667-10.667,10.667h-64
		c-5.891,0-10.667-4.776-10.667-10.667v-64C320,122.109,324.776,117.333,330.667,117.333z"/>
	<path style="fill:#64B5F6;" d="M96,117.333h64c5.891,0,10.667,4.776,10.667,10.667v64c0,5.891-4.776,10.667-10.667,10.667H96
		c-5.891,0-10.667-4.776-10.667-10.667v-64C85.333,122.109,90.109,117.333,96,117.333z"/>
</g>
<g>
	<path style="fill:#F44336;" d="M202.667,224c-5.891,0-10.667-4.776-10.667-10.667v-128c0-5.891,4.776-10.667,10.667-10.667
		s10.667,4.776,10.667,10.667v128C213.333,219.224,208.558,224,202.667,224z"/>
	<path style="fill:#F44336;" d="M288,224c-5.891,0-10.667-4.776-10.667-10.667v-128c0-5.891,4.776-10.667,10.667-10.667
		c5.891,0,10.667,4.776,10.667,10.667v128C298.667,219.224,293.891,224,288,224z"/>
	<path style="fill:#F44336;" d="M288,160h-85.333c-5.891,0-10.667-4.776-10.667-10.667c0-5.891,4.776-10.667,10.667-10.667H288
		c5.891,0,10.667,4.776,10.667,10.667C298.667,155.224,293.891,160,288,160z"/>
</g>
<path style="fill:#455A64;" d="M10.667,394.667H480c5.891,0,10.667,4.776,10.667,10.667V448c0,5.891-4.776,10.667-10.667,10.667
	H10.667C4.776,458.667,0,453.891,0,448v-42.667C0,399.442,4.776,394.667,10.667,394.667z"/>
<g>
</g>
<g>
</g>
<g>
</g>
<g>
</g>
<g>
</g>
<g>
</g>
<g>
</g>
<g>
</g>
<g>
</g>
<g>
</g>
<g>
</g>
<g>
</g>
<g>
</g>
<g>
</g>
<g>
</g>
</svg>
